9634.000000 0.322555 0.733356 -0.500155 0.942204 -1.623905 -1.660764 0.791047 0.288176 0.407874 -0.572178 0.415647 -0.537269 0.046881 0.322735 -0.205933 0.205151 -0.665354 0.404005 1.994679 -0.617018 0.191403 -0.404102 0.953191 0.458341 -0.676849 0.266448 -0.968457 0.054591 0.603951 -0.583478 -1.441037 0.559761 0.081948 -0.171521 0.465719 -0.825774 -0.456102 0.560995 -0.595414 0.502686 -0.946896 0.820233 0.863220 -0.076749 -0.494890 -0.741530 -0.991069 0.477614 -0.096492 0.826047 0.298657 -0.146122 -0.102099 0.110480 0.789376 0.221052 -0.673205 0.820919 0.927851 -0.926555 -0.687856 -0.807708 -0.718645 -0.612680 -0.919497 0.689174 0.857991 0.976654 0.577694 -0.033869 0.377142 0.367561 -1.660335 -0.153679 -0.828660 0.929332 0.498832 -0.819729 0.466017 0.832552 0.919082 -0.127160 -0.984814 0.883356 -0.096800 0.804562 -0.874728 -0.964865 -0.191352 -0.599086 0.328173 -0.656608 0.005191 0.584796 -0.749758 -0.562054 0.273970 -0.188212 -0.585400 -0.411574 0.777919 -0.676251 0.366675 -0.435717 0.032104 0.742504 1.282112 0.940444 -0.692402 0.900561 0.715119 -0.686084 0.743415 0.638947 0.218135 0.793530 0.511991 -1.874273 0.876610 0.137472 0.744321 0.180051 0.000395 -0.250488 0.262833 0.250637 0.794911 -0.961184 -0.299769 0.602058 0.761097 0.840344 -0.333994 -0.416771 -0.595374 -0.574096
9634.000000 0.322555 0.733356 -0.500155 0.942204 -1.623905 -1.660764 0.791047 0.288176 0.407874 -0.572178 0.415647 -0.537269 0.046881 0.322735 -0.205933 0.205151 -0.665354 0.404005 1.994679 -0.617018 0.191403 -0.404102 0.953191 0.458341 -0.676849 0.266448 -0.968457 0.054591 0.603951 -0.583478 -1.441037 0.559761 0.081948 -0.171521 0.465719 -0.825774 -0.456102 0.560995 -0.595414 0.502686 -0.946896 0.820233 0.863220 -0.076749 -0.494890 -0.741530 -0.991069 0.477614 -0.096492 0.826047 0.298657 -0.146122 -0.102099 0.110480 0.789376 0.221052 -0.673205 0.820919 0.927851 -0.926555 -0.687856 -0.807708 -0.718645 -0.612680 -0.919497 0.689174 0.857991 0.976654 0.577694 -0.033869 0.377142 0.367561 -1.660335 -0.153679 -0.828660 0.929332 0.498832 -0.819729 0.466017 0.832552 0.919082 -0.127160 -0.984814 0.883356 -0.096800 0.804562 -0.874728 -0.964865 -0.191352 -0.599086 0.328173 -0.656608 0.005191 0.584796 -0.749758 -0.562054 0.273970 -0.188212 -0.585400 -0.411574 0.777919 -0.676251 0.366675 -0.435717 0.032104 0.742504 1.282112 0.940444 -0.692402 0.900561 0.715119 -0.686084 0.743415 0.638947 0.218135 0.793530 0.511991 -1.874273 0.876610 0.137472 0.744321 0.180051 0.000395 -0.250488 0.262833 0.250637 0.794911 -0.961184 -0.299769 0.602058 0.761097 0.840344 -0.333994 -0.416771 -0.595374 -0.574096
10616.000000 -0.606882 -1.615462 -1.314215 1.791186 1.703324 0.775839 -0.351382 -0.308264 -0.186089 0.364333 0.665819 1.715501 -0.399456 1.158707 -0.927222 1.062993 -0.936831 1.613668 -1.878345 1.460773 0.676392 -0.973951 -0.072754 1.714039 0.127637 -0.623273 0.896678 -1.933806 -1.352667 -0.894629 -0.428624 0.040451 -0.510091 0.257161 -0.168363 -0.806766 -0.967001 1.480256 0.884970 0.846910 -0.155411 -0.449211 0.562411 1.445133 -1.290504 1.635189 0.508125 -0.227335 1.248858 0.629780 -0.766562 -0.074751 1.655829 1.160684 -0.360712 -0.216534 -1.462589 -1.464034 -0.150340 -0.815256 -0.358663 1.421036 1.225195 1.131246 -0.321803 -0.943167 -1.675520 0.711196 -1.462911 1.209450 -0.441894 0.381677 -1.239761 -1.879483 -0.173190 -0.530265 1.755707 -1.665065 1.242400 1.004564 0.964716 -1.524162 -1.070187 0.620545 1.636522 0.569101 -1.595989 -1.826067 1.105067 0.253671 -0.641323 -1.253596 -0.325292 -1.416128 1.877650 1.352904 -0.359296 -1.797870 0.064101 0.177793 1.411580 1.622207 -1.440530 -1.828182 1.742724 0.386281 -0.358447 1.498431 0.721216 -1.116047 0.502995 -0.314069 -0.640209 1.432809 -1.693524 -1.003687 0.001910 -1.289513 -0.829754 -0.893023 0.964158 0.528922 -0.146619 -1.361134 1.112794 -0.268969 1.991770 -1.246501 -0.066839 0.055871 0.931292 -0.655260 -0.321922 1.490762 -0.483441 -0.579198
10616.000000 -0.606882 -1.615462 -1.314215 1.791186 1.703324 0.775839 -0.351382 -0.308264 -0.186089 0.364333 0.665819 1.715501 -0.399456 1.158707 -0.927222 1.062993 -0.936831 1.613668 -1.878345 1.460773 0.676392 -0.973951 -0.072754 1.714039 0.127637 -0.623273 0.896678 -1.933806 -1.352667 -0.894629 -0.428624 0.040451 -0.510091 0.257161 -0.168363 -0.806766 -0.967001 1.480256 0.884970 0.846910 -0.155411 -0.449211 0.562411 1.445133 -1.290504 1.635189 0.508125 -0.227335 1.248858 0.629780 -0.766562 -0.074751 1.655829 1.160684 -0.360712 -0.216534 -1.462589 -1.464034 -0.150340 -0.815256 -0.358663 1.421036 1.225195 1.131246 -0.321803 -0.943167 -1.675520 0.711196 -1.462911 1.209450 -0.441894 0.381677 -1.239761 -1.879483 -0.173190 -0.530265 1.755707 -1.665065 1.242400 1.004564 0.964716 -1.524162 -1.070187 0.620545 1.636522 0.569101 -1.595989 -1.826067 1.105067 0.253671 -0.641323 -1.253596 -0.325292 -1.416128 1.877650 1.352904 -0.359296 -1.797870 0.064101 0.177793 1.411580 1.622207 -1.440530 -1.828182 1.742724 0.386281 -0.358447 1.498431 0.721216 -1.116047 0.502995 -0.314069 -0.640209 1.432809 -1.693524 -1.003687 0.001910 -1.289513 -0.829754 -0.893023 0.964158 0.528922 -0.146619 -1.361134 1.112794 -0.268969 1.991770 -1.246501 -0.066839 0.055871 0.931292 -0.655260 -0.321922 1.490762 -0.483441 -0.579198
8683.000000 0.229542 -0.862992 -0.116486 0.942204 -1.623905 -0.357484 0.791047 0.210822 -0.452208 -0.491067 0.109909 0.320796 0.046881 0.863068 -0.198326 0.042332 -0.358305 0.030300 1.994679 0.731373 0.069728 -0.404102 0.953191 -0.685495 -0.131079 -1.712122 -0.611271 -0.707083 0.603951 -0.150454 -0.174575 0.559761 -0.653755 -0.456977 0.465719 -0.431376 -0.837552 0.192807 0.853272 0.502686 -1.637635 -0.383913 0.170555 -0.076749 -0.178111 0.964622 -0.512339 0.463584 0.058348 0.398828 -0.991515 -0.879213 0.978108 0.479613 -0.273920 -0.582216 0.988346 0.286362 -0.608734 0.443712 -0.687856 -0.807708 -0.186006 0.234187 -0.919497 -0.413440 -0.292805 0.659105 0.842576 0.676080 -0.138294 0.286214 -0.881755 -0.153679 -1.091685 -0.177431 -0.189056 -0.570461 0.466017 0.832552 0.919082 0.370844 0.889309 0.883356 -0.032465 -0.213058 0.118719 -0.964865 -0.191352 0.829420 0.328173 0.656503 -0.669926 -0.247713 -0.125427 -0.618970 -0.578120 0.581768 -0.305808 0.958358 -0.168720 -0.676251 0.366675 0.714649 0.129501 0.364162 1.282112 -0.065302 0.391156 -0.060349 0.715119 -0.999590 0.746160 0.638947 0.386346 0.793530 0.671474 0.933636 -0.201735 -0.486860 0.039167 0.099312 0.835018 0.205807 0.262833 -1.715363 0.794911 0.502529 -0.801076 -0.564615 0.149103 -0.266534 -0.097453 0.040014 0.682991 0.815004
18684.000000 -0.275130 0.728515 -0.125816 -0.982161 1.435510 -0.441299 0.543244 -0.579419 -0.392742 0.501360 0.156292 -0.464492 -1.331834 -0.372347 -0.626554 0.598741 -0.558843 -0.270022 0.121173 0.151561 -0.201777 0.901406 0.604997 -1.053887 -0.241897 0.408593 0.526494 0.121738 -0.068203 0.133875 1.042052 0.717441 -1.631759 1.667115 0.630973 -0.586594 -0.438665 0.463373 -1.492824 -0.678731 0.660545 0.466115 -0.223030 0.863323 1.586965 -0.728160 -0.943870 0.963130 -1.755246 -0.496976 1.377037 1.673766 -0.248229 -0.915540 -0.110827 1.566875 -0.486940 -0.517592 0.952525 0.638242 0.606411 0.110972 0.160499 0.565445 0.050327 0.423816 -0.733418 0.640078 -0.136409 -0.497099 -0.339781 -0.364696 -0.886649 -1.503036 -0.397563 0.485029 0.061822 -1.352367 0.214371 -0.536025 -1.084767 -1.651915 0.582983 -0.876965 -1.010242 -0.062795 1.141325 -0.390624 -1.836277 -1.184964 -0.943759 -0.631135 0.293630 0.316682 1.501559 -0.536022 -0.381529 0.088538 0.911086 0.030776 0.721992 -1.070156 0.513440 0.901561 0.358624 1.071587 -0.047818 0.851800 0.186485 -0.510254 0.833327 0.807200 0.400553 -1.402356 0.361073 1.560810 0.745188 0.559836 0.892618 -1.114345 0.802869 0.084558 -1.633685 0.253602 1.849785 1.235226 0.635796 -0.104528 0.141172 0.662288 -1.593008 0.263875 0.633756 -0.441150 1.047642 -0.871643
10800.000000 -0.453583 0.825912 -1.202805 0.138569 -0.975653 -0.329245 -0.850171 0.930960 -0.235492 -0.587341 0.415647 -0.559437 1.500600 0.291380 -0.608502 0.196091 -0.723554 0.404005 0.817116 -0.022730 0.191403 1.152726 -0.375562 -0.123328 -0.698218 0.266448 -0.994321 0.107722 0.795611 -1.263900 -0.617701 -0.696763 -0.868485 -0.119378 0.466923 -0.816526 -0.408885 0.707227 1.355083 0.446517 0.136808 0.242867 0.803336 -0.156272 0.086877 -0.771696 -0.928926 0.436392 1.649326 -1.682006 -0.624930 0.700667 -1.772346 -0.175337 0.903742 0.166864 -1.472536 0.753923 -0.801128 -0.926555 -0.657237 -0.370325 -0.706794 0.469793 1.460533 0.689174 -0.438455 1.471460 -1.007370 -0.025808 -0.976287 0.235916 -0.213636 0.304185 -0.828660 1.026159 0.283867 -0.819729 0.488277 0.223579 -1.373218 1.390662 -0.958955 1.170017 -0.449663 0.804562 -1.250612 0.229995 0.614136 1.369864 0.303441 0.862923 0.005191 0.584796 -0.720614 1.772079 0.284073 -0.269800 -0.585400 -0.411574 0.777919 1.710239 1.007053 -0.340495 0.032104 -0.922272 -0.601944 -0.469064 -0.138058 0.136056 0.639767 -0.686084 0.438697 0.642778 0.185322 -0.390516 0.429818 0.343407 -1.139323 0.137472 0.838421 0.247346 0.767870 -0.250488 -0.235153 -1.373269 -1.281346 -0.961184 -0.937575 0.858775 -0.372758 0.805218 0.397400 -0.329854 -0.639487 -0.662427
9850.000000 -1.407546 -0.615048 0.065234 0.026209 1.901038 -0.170175 -0.620401 -0.635201 -0.674824 -0.682526 -0.807478 0.655926 -0.249325 0.402687 -0.575161 0.789582 -0.665354 0.500741 0.838422 1.011596 0.191403 0.000740 -0.071593 -0.470054 -1.468208 0.221366 -1.118634 0.299217 1.371143 0.497304 -0.792800 -0.885312 0.972102 -0.160197 0.611011 -0.825774 -1.596406 0.810239 -0.643617 0.812942 -0.946896 0.803017 -0.674580 -0.212121 0.150896 -0.741530 -0.998684 1.352342 0.681923 0.873607 -0.359862 0.608052 -0.176518 -0.001636 0.616835 0.176466 -0.915124 1.129022 0.680504 -0.926555 -0.766848 -1.260998 -1.121327 -0.484359 0.354118 -0.002318 -0.369232 1.087625 -1.541587 0.489025 0.476399 0.391967 -0.263099 0.198992 -0.782324 0.865239 0.527470 -0.819729 -0.432241 -1.349336 0.527899 0.842854 -0.964283 -0.385324 -0.193464 0.719831 1.294426 1.939201 -1.734833 1.255158 0.706687 -0.157487 -0.916022 -0.726904 -0.749758 -0.008762 0.299702 -0.790682 -0.586094 -0.406265 0.747436 0.692296 0.953657 -0.917722 0.849920 -0.043029 -0.661658 -0.469064 -0.760593 -0.917275 0.722880 -1.684744 0.887522 0.800327 0.218135 0.660306 0.614849 -0.290055 -0.009589 1.688375 0.704027 1.386196 0.878295 0.046528 -1.595164 -0.165735 0.213019 -0.750282 -0.853873 0.692332 0.719441 -0.985636 0.393800 -1.472209 -0.757630 -0.580258
9850.000000 -1.407546 -0.615048 0.065234 0.026209 1.901038 -0.170175 -0.620401 -0.635201 -0.674824 -0.682526 -0.807478 0.655926 -0.249325 0.402687 -0.575161 0.789582 -0.665354 0.500741 0.838422 1.011596 0.191403 0.000740 -0.071593 -0.470054 -1.468208 0.221366 -1.118634 0.299217 1.371143 0.497304 -0.792800 -0.885312 0.972102 -0.160197 0.611011 -0.825774 -1.596406 0.810239 -0.643617 0.812942 -0.946896 0.803017 -0.674580 -0.212121 0.150896 -0.741530 -0.998684 1.352342 0.681923 0.873607 -0.359862 0.608052 -0.176518 -0.001636 0.616835 0.176466 -0.915124 1.129022 0.680504 -0.926555 -0.766848 -1.260998 -1.121327 -0.484359 0.354118 -0.002318 -0.369232 1.087625 -1.541587 0.489025 0.476399 0.391967 -0.263099 0.198992 -0.782324 0.865239 0.527470 -0.819729 -0.432241 -1.349336 0.527899 0.842854 -0.964283 -0.385324 -0.193464 0.719831 1.294426 1.939201 -1.734833 1.255158 0.706687 -0.157487 -0.916022 -0.726904 -0.749758 -0.008762 0.299702 -0.790682 -0.586094 -0.406265 0.747436 0.692296 0.953657 -0.917722 0.849920 -0.043029 -0.661658 -0.469064 -0.760593 -0.917275 0.722880 -1.684744 0.887522 0.800327 0.218135 0.660306 0.614849 -0.290055 -0.009589 1.688375 0.704027 1.386196 0.878295 0.046528 -1.595164 -0.165735 0.213019 -0.750282 -0.853873 0.692332 0.719441 -0.985636 0.393800 -1.472209 -0.757630 -0.580258
10000.000000 -0.283315 -1.658431 -0.116402 -0.034249 0.000371 0.315301 -1.821066 -0.831988 0.509867 1.244019 -1.603635 0.680754 1.519113 -0.079001 0.773280 -1.139186 0.818103 -1.238549 0.899191 1.155619 1.483362 -1.336925 0.395472 0.019894 0.480157 1.466457 1.779835 1.002216 -1.211523 -0.427890 1.612105 0.505162 -0.086321 -0.504297 -1.529087 1.914050 1.811004 -1.350153 -0.917939 0.320871 1.893866 -0.521574 -0.998375 1.412979 1.399425 1.774905 -1.726206 0.217527 -1.463644 1.172984 -0.626854 -1.980282 1.836059 1.768618 0.039612 0.316215 1.235075 -0.180554 -0.681569 -1.976448 1.391556 -1.069464 0.528714 -0.694765 0.426239 0.999628 -0.780715 0.237243 1.649475 0.301346 -1.441887 1.543341 1.779772 -0.440262 0.956321 1.179197 -0.665357 1.230114 -0.603275 -0.129002 0.403098 0.769871 -0.109284 0.239157 0.538489 1.930328 -1.444627 -0.226436 -0.250226 -0.126196 -0.202884 -0.858669 0.804340 -1.674170 0.446566 -0.769421 1.325458 1.665850 1.467821 0.974933 -0.032804 -1.974065 0.518274 -0.253031 -0.414327 -0.525405 -1.073834 0.920315 -1.295291 0.322890 -1.208686 1.107808 -0.907239 0.682030 -0.653035 1.631250 0.612358 -0.097663 -0.595186 -1.637868 1.776141 1.201930 -0.496537 0.580481 1.527760 1.950028 1.811060 0.853218 1.615879 1.278881 -0.171849 -0.416925 1.304816 -1.653575 1.330044 -1.109512
10967.000000 0.983225 -0.895832 0.588692 0.837973 -0.940895 1.413527 1.807756 1.408242 0.644162 1.392814 1.324734 -0.340293 -1.337604 -0.111755 0.950428 -1.969517 -1.810079 -0.560157 1.794475 -0.296561 1.130093 1.359629 0.865002 1.316263 -1.686442 -1.809748 -0.179594 -0.520906 0.280381 -0.276269 1.246766 -0.736394 0.827899 -0.164542 -1.898421 1.887004 -0.751015 1.909335 1.295246 1.893147 1.302148 0.619981 -0.447146 1.964544 -1.491774 -1.496718 1.995028 -1.301853 -0.056875 1.789503 0.401586 -0.926782 1.149132 -0.733412 -1.610518 1.462690 -0.543159 0.209888 -1.058217 1.737222 1.933619 -1.811450 -0.999172 0.761518 0.024008 -0.897593 0.648522 1.272993 -0.988258 -0.056232 1.166141 -1.686110 -1.436251 -1.281005 -1.721566 -0.928026 -0.777724 -1.726538 -0.229879 1.165402 -1.937035 -1.828293 -1.761380 1.212097 -0.561704 -1.371898 0.674787 0.895136 0.837989 1.616570 0.632358 0.771608 1.805120 1.633187 -0.466874 -0.170872 -1.264406 -1.818352 -0.897879 -0.252664 0.125416 -1.731738 0.061226 0.689165 -1.012744 0.339661 1.761139 0.209533 0.613123 -0.468739 -0.625066 0.676087 -0.297032 -0.386446 -0.111816 1.141263 0.241656 -1.437029 0.036400 -0.920355 -1.820459 -1.331242 1.851253 1.984660 -1.698055 -0.615622 -0.186212 -0.962461 -0.433974 0.915909 0.784875 1.691443 1.184171 -1.153899 0.380608 -1.828573
13483.000000 0.229542 -0.862992 -0.116486 0.942204 0.687121 -1.660764 0.791047 0.288176 -0.452208 -0.491067 0.538667 0.693761 0.902494 0.863068 -0.205933 0.042332 0.711890 0.682063 -0.389598 0.731373 0.069728 0.417481 0.953191 -0.685495 -0.131079 -1.712122 -1.471785 -0.707083 -0.911952 -0.475464 -0.174575 0.559761 -0.653755 -0.998926 -0.552596 -0.431376 -0.837552 0.192807 -0.591087 0.502686 -0.340591 0.318597 0.170555 -0.076749 -0.178111 0.964622 -0.952775 1.675041 0.058348 -0.439373 -0.991515 -0.762151 -0.521395 0.479613 0.675045 0.017680 0.355664 0.398087 -0.608734 0.292458 0.746208 -0.807708 0.392687 0.234187 -0.919497 -0.692802 -0.292805 0.659105 0.842576 0.676080 -0.138294 0.286214 -0.881755 0.385103 -0.788026 -0.177431 0.222106 -0.570461 0.466017 0.832552 -0.277174 0.370844 0.889309 0.883356 -0.032465 -0.213058 -1.167401 -0.964865 0.910295 0.829420 -0.306825 -0.656608 -0.669926 -0.845248 -0.453669 -0.618970 -0.578120 0.581768 -0.730283 0.646574 -0.168720 -0.676251 0.366675 0.748525 0.712591 0.742504 -0.965228 0.940444 -0.827957 -0.726512 0.498650 0.122749 -0.232024 0.638947 0.386346 0.793530 0.671474 0.933636 -0.122788 -0.486860 0.763056 0.147215 0.835018 0.205807 0.899502 -1.715363 0.431141 0.502529 -0.299769 -0.991069 0.149103 -0.266534 -0.097453 0.449197 -0.562807 -0.384861
10016.000000 -0.922860 -0.215003 1.910456 -0.761369 -0.464678 -1.369334 0.068852 0.525346 1.391875 1.494363 -0.682972 -1.395553 -1.791137 1.944036 -0.482936 -1.784577 -0.607414 -1.920830 0.435944 1.592466 0.198662 -0.403935 -0.160212 -0.350930 -0.831096 0.132516 1.553686 0.841765 -0.441268 1.843176 1.998195 0.635873 -0.371827 1.908651 1.874503 1.163495 -1.460683 -0.056645 -0.311159 1.931192 -0.562282 1.005870 -1.464361 -0.353419 0.949906 0.052702 -0.137995 -1.657508 0.131872 -1.702051 1.934958 -1.669465 -0.105987 -0.225254 -0.020396 1.062918 1.907262 -0.466710 -0.095317 -0.534006 -0.623534 -0.097122 -1.898134 1.004639 -0.188472 1.976369 0.168134 0.350845 -0.080275 1.856976 0.282037 1.357443 0.862845 0.817676 -0.995976 -0.187249 -1.129622 0.866028 0.155243 1.002251 1.163977 0.090201 1.332785 -0.942010 1.864947 -0.687611 -1.879092 1.772208 0.845679 0.025591 -0.761798 -1.777854 1.928469 -0.659932 1.226785 -0.260003 -0.683563 -0.605080 -1.909157 1.236162 -0.748105 0.372880 0.593604 -1.885259 -0.809444 1.597628 -0.072508 0.060934 0.463657 -1.917265 -0.936815 -0.372366 0.172936 -1.604030 0.685624 0.037883 -0.291641 0.806532 -0.189909 -1.445961 -1.167876 1.048292 -1.223815 -1.239407 -1.611640 -1.997030 0.500590 -0.295203 -0.602110 0.591433 -1.059041 0.649785 -1.035687 1.534563 0.764526 0.154869
18450.000000 -0.531027 0.634369 -0.483085 0.295990 0.339584 1.146517 1.136495 -0.762973 -0.078391 -0.572178 0.415647 1.849985 -0.249325 0.399991 -0.661343 -0.311074 -0.725174 0.404005 -0.141385 -0.041706 0.101404 -0.001703 -0.325966 -0.124674 -0.676849 0.266448 -0.935667 0.049595 0.199274 -0.583478 1.497199 -0.795605 -0.779076 -0.171521 -1.558104 -0.752575 -0.436246 -1.775580 -0.582536 0.312848 0.769962 0.808831 0.863220 -1.572245 0.120145 -0.803889 -0.991069 0.390115 -0.899299 -1.566706 -0.601740 -0.177416 -0.102099 1.771259 0.789376 0.368406 -0.699702 -0.176690 -0.724357 -0.926555 -1.836846 -1.976985 -0.776328 1.469511 0.156359 -1.681684 1.623591 0.976654 0.257988 -0.533195 0.119155 0.367561 -0.213636 0.320685 -0.913360 0.295047 0.492902 -1.290833 -0.086678 0.161307 -1.085013 0.809677 0.614899 -0.413206 -0.076480 0.804562 -0.874728 0.287309 0.152350 -0.669651 0.402981 0.862923 0.212873 0.576810 -0.787469 -0.562054 0.331925 -0.188212 -0.585400 -1.129313 0.777919 0.866021 1.249007 -0.435717 -1.071523 -0.872673 -0.602648 -0.469064 -0.769447 1.880488 1.173102 -0.652945 0.794167 0.796147 -1.964470 -0.276395 0.265942 0.442908 0.971414 1.177162 0.794169 0.202719 0.000395 -0.250488 0.629024 0.250637 0.212934 -0.961184 -0.937575 0.602058 1.791687 0.509204 -1.736202 0.499509 -0.600910 -1.785911
10000.000000 -0.283315 -1.658431 -0.116402 -0.034249 0.000371 0.315301 -1.821066 -0.831988 0.509867 1.244019 -1.603635 0.680754 1.519113 -0.079001 0.773280 -1.139186 0.818103 -1.238549 0.899191 1.155619 1.483362 -1.336925 0.395472 0.019894 0.480157 1.466457 1.779835 1.002216 -1.211523 -0.427890 1.612105 0.505162 -0.086321 -0.504297 -1.529087 1.914050 1.811004 -1.350153 -0.917939 0.320871 1.893866 -0.521574 -0.998375 1.412979 1.399425 1.774905 -1.726206 0.217527 -1.463644 1.172984 -0.626854 -1.980282 1.836059 1.768618 0.039612 0.316215 1.235075 -0.180554 -0.681569 -1.976448 1.391556 -1.069464 0.528714 -0.694765 0.426239 0.999628 -0.780715 0.237243 1.649475 0.301346 -1.441887 1.543341 1.779772 -0.440262 0.956321 1.179197 -0.665357 1.230114 -0.603275 -0.129002 0.403098 0.769871 -0.109284 0.239157 0.538489 1.930328 -1.444627 -0.226436 -0.250226 -0.126196 -0.202884 -0.858669 0.804340 -1.674170 0.446566 -0.769421 1.325458 1.665850 1.467821 0.974933 -0.032804 -1.974065 0.518274 -0.253031 -0.414327 -0.525405 -1.073834 0.920315 -1.295291 0.322890 -1.208686 1.107808 -0.907239 0.682030 -0.653035 1.631250 0.612358 -0.097663 -0.595186 -1.637868 1.776141 1.201930 -0.496537 0.580481 1.527760 1.950028 1.811060 0.853218 1.615879 1.278881 -0.171849 -0.416925 1.304816 -1.653575 1.330044 -1.109512
10000.000000 -0.283315 -1.658431 -0.116402 -0.034249 0.000371 0.315301 -1.821066 -0.831988 0.509867 1.244019 -1.603635 0.680754 1.519113 -0.079001 0.773280 -1.139186 0.818103 -1.238549 0.899191 1.155619 1.483362 -1.336925 0.395472 0.019894 0.480157 1.466457 1.779835 1.002216 -1.211523 -0.427890 1.612105 0.505162 -0.086321 -0.504297 -1.529087 1.914050 1.811004 -1.350153 -0.917939 0.320871 1.893866 -0.521574 -0.998375 1.412979 1.399425 1.774905 -1.726206 0.217527 -1.463644 1.172984 -0.626854 -1.980282 1.836059 1.768618 0.039612 0.316215 1.235075 -0.180554 -0.681569 -1.976448 1.391556 -1.069464 0.528714 -0.694765 0.426239 0.999628 -0.780715 0.237243 1.649475 0.301346 -1.441887 1.543341 1.779772 -0.440262 0.956321 1.179197 -0.665357 1.230114 -0.603275 -0.129002 0.403098 0.769871 -0.109284 0.239157 0.538489 1.930328 -1.444627 -0.226436 -0.250226 -0.126196 -0.202884 -0.858669 0.804340 -1.674170 0.446566 -0.769421 1.325458 1.665850 1.467821 0.974933 -0.032804 -1.974065 0.518274 -0.253031 -0.414327 -0.525405 -1.073834 0.920315 -1.295291 0.322890 -1.208686 1.107808 -0.907239 0.682030 -0.653035 1.631250 0.612358 -0.097663 -0.595186 -1.637868 1.776141 1.201930 -0.496537 0.580481 1.527760 1.950028 1.811060 0.853218 1.615879 1.278881 -0.171849 -0.416925 1.304816 -1.653575 1.330044 -1.109512
8467.000000 -0.275130 1.532492 -0.821897 -0.885083 0.185283 -0.528637 0.460495 -0.642910 1.100225 0.510202 -0.792912 -0.337584 -0.942320 0.513740 0.030611 0.629832 -0.558843 -0.305681 -0.012367 0.982963 -0.106839 0.918865 1.001199 0.127052 -0.286653 0.347391 0.625248 0.122737 1.342084 0.119176 0.173176 -0.180306 -1.506730 1.474412 0.913221 -0.404985 -0.433768 0.613408 -0.724965 -0.678731 0.660545 -0.522257 -0.768148 1.023337 1.861178 -0.819097 0.385100 0.135504 -1.698083 -0.563851 1.290354 1.703231 -0.248229 1.465831 0.975429 1.451391 0.496221 -0.524963 0.940834 0.043048 0.608912 0.084462 0.240851 0.655483 0.045885 0.402613 -0.733418 0.581825 -0.115981 1.236123 0.878913 -1.978734 -1.686247 0.009877 -0.348266 0.485029 0.061822 -1.307637 0.178542 1.463022 -0.195462 -0.148794 0.634333 1.732117 -1.057103 -0.723051 1.274843 -0.390624 -1.792651 -1.590699 -0.843817 -0.469517 0.293630 -0.599992 1.517612 -0.609479 -0.363189 0.227437 -0.523673 -0.064841 0.821464 -1.070156 0.459525 0.901561 1.094881 1.071587 -0.114051 0.851800 0.136208 -0.501497 0.833327 0.807200 0.034173 -1.402356 1.123596 1.575429 0.646783 0.585599 -0.269768 -0.475821 0.918403 1.420807 -1.633685 -1.032988 1.849785 0.991107 0.604577 -0.810035 0.203481 1.924351 0.758680 1.247974 0.781789 -0.800393 -0.543341 -0.890099
8467.000000 -0.275130 1.532492 -0.821897 -0.885083 0.185283 -0.528637 0.460495 -0.642910 1.100225 0.510202 -0.792912 -0.337584 -0.942320 0.513740 0.030611 0.629832 -0.558843 -0.305681 -0.012367 0.982963 -0.106839 0.918865 1.001199 0.127052 -0.286653 0.347391 0.625248 0.122737 1.342084 0.119176 0.173176 -0.180306 -1.506730 1.474412 0.913221 -0.404985 -0.433768 0.613408 -0.724965 -0.678731 0.660545 -0.522257 -0.768148 1.023337 1.861178 -0.819097 0.385100 0.135504 -1.698083 -0.563851 1.290354 1.703231 -0.248229 1.465831 0.975429 1.451391 0.496221 -0.524963 0.940834 0.043048 0.608912 0.084462 0.240851 0.655483 0.045885 0.402613 -0.733418 0.581825 -0.115981 1.236123 0.878913 -1.978734 -1.686247 0.009877 -0.348266 0.485029 0.061822 -1.307637 0.178542 1.463022 -0.195462 -0.148794 0.634333 1.732117 -1.057103 -0.723051 1.274843 -0.390624 -1.792651 -1.590699 -0.843817 -0.469517 0.293630 -0.599992 1.517612 -0.609479 -0.363189 0.227437 -0.523673 -0.064841 0.821464 -1.070156 0.459525 0.901561 1.094881 1.071587 -0.114051 0.851800 0.136208 -0.501497 0.833327 0.807200 0.034173 -1.402356 1.123596 1.575429 0.646783 0.585599 -0.269768 -0.475821 0.918403 1.420807 -1.633685 -1.032988 1.849785 0.991107 0.604577 -0.810035 0.203481 1.924351 0.758680 1.247974 0.781789 -0.800393 -0.543341 -0.890099
10016.000000 1.942653 -0.862992 0.222257 0.942204 1.136037 -0.139349 0.791047 0.210761 0.407874 1.297727 0.538667 0.693761 0.046881 0.938931 -0.305418 0.041081 1.333643 0.099706 2.028264 -0.604971 0.154452 -0.392734 0.906794 0.458341 1.444132 -1.786139 -1.471785 -0.685745 0.603951 -0.054876 -1.510343 0.479642 -1.664221 -0.937323 0.513271 -0.425662 -0.805090 0.543277 0.901072 0.485552 -1.541590 -0.383913 -1.559433 -0.089166 -0.577011 -1.830494 1.462148 -0.857493 -0.096492 -1.294560 0.314090 1.000903 -0.521395 -0.349865 0.918198 -0.076941 0.988346 0.496295 0.763937 0.349089 -0.628144 -0.807708 0.042518 0.310028 0.090387 -0.692802 -1.043532 1.457831 0.577694 0.699017 0.690457 -1.160313 -1.660335 -0.206315 -1.091685 -1.088556 -0.999105 -0.192164 0.443431 0.841912 -1.241502 -0.904532 0.991379 -0.039310 -1.426248 -0.686913 -1.167401 -0.871002 -0.191352 -0.814261 0.408087 0.330382 -0.758008 -0.872398 -0.431766 -1.278599 -0.640687 -1.858329 -0.305808 0.902093 -0.301751 -0.775937 0.966165 0.668677 0.094603 0.758727 0.759897 0.940444 1.305444 -0.060349 0.715119 -0.999590 -0.245871 0.638947 -1.302351 0.790169 0.459694 -1.800004 -1.071525 -0.485808 0.345122 0.117289 0.835018 1.661591 1.461479 -1.330312 0.794911 0.820223 -0.299769 -1.262433 0.761097 -0.344977 -0.754035 1.587812 -0.556472 0.811867
9984.000000 -0.275130 0.638024 -0.222871 -0.885083 -0.975653 -0.451926 -0.782536 -0.579419 1.100225 -0.572178 0.205398 -0.432003 -0.942320 0.608057 0.120124 0.205151 -0.558843 0.404005 0.066642 0.982963 -0.198575 0.071854 0.593234 0.127052 -0.241897 0.408593 0.625248 0.054591 -0.062213 0.133875 0.173176 -0.792090 -0.850122 -0.171521 -0.721496 -0.587369 -0.438665 0.555020 -0.595414 0.400489 0.660545 0.506012 0.863220 -0.196221 0.142968 -0.819097 0.428261 0.477614 0.662475 0.826047 1.377037 1.703231 -0.102099 1.366060 0.789376 1.511877 -0.673205 -0.524963 0.940834 0.542013 0.608912 -0.395724 0.160499 0.655483 0.432755 0.689174 -0.438455 0.581825 -0.120695 -0.033869 0.377142 -0.280711 -0.886649 0.240362 -0.423461 0.929332 0.061822 -0.819729 0.406946 -0.511125 -0.993682 -0.185690 0.582983 -0.095781 -0.096800 -0.723051 1.193023 0.229995 -1.836277 -1.093623 -0.843817 0.862923 0.293630 0.584796 1.517612 -0.562054 0.273970 -0.188212 0.911086 -0.411574 0.777919 -1.070156 0.459525 -0.435717 1.064432 -0.872673 -0.506386 0.851800 0.136208 0.900561 0.692243 0.807200 0.400553 -1.402356 0.218135 -0.353385 0.646783 0.585599 0.876610 0.137472 0.744321 0.180051 0.000395 -0.250488 -0.235153 0.912308 0.187458 -0.801103 0.175839 1.924351 0.758680 0.840344 0.694944 -0.416771 -0.595374 -0.574096
12267.000000 -1.815086 0.584927 -0.233787 -0.970122 0.085501 -0.451926 0.705550 0.580590 1.092408 0.506826 0.205398 -0.432003 -0.942320 0.608057 0.055023 0.387180 0.291654 -0.255114 1.665005 0.534434 -0.280579 0.916218 0.593234 0.089282 -0.241897 0.506101 0.623606 0.127532 -0.154798 -1.140279 0.181937 -0.862939 -1.543950 1.426344 -0.726198 -0.587369 -0.438665 -1.268587 1.560411 1.391692 0.627658 0.458882 -0.293708 0.944862 1.892449 -0.830199 0.428261 0.760884 0.699942 -0.579482 1.332150 1.623043 -0.248229 -0.013402 1.089464 1.511877 -0.486733 -0.524963 -0.476930 0.594316 0.608912 0.020717 0.160499 0.623045 0.075713 0.402613 -0.733418 0.581825 -0.155740 -0.393855 -0.857762 -0.280711 -1.849535 -1.370628 -0.456458 0.428493 -0.025986 -1.255441 -0.095993 -0.511125 1.212492 0.460265 0.582983 -0.886310 -1.010242 -0.726900 1.193023 -0.390624 -0.932807 -1.118462 -0.760519 -1.660661 0.293630 0.316682 -0.735110 1.323926 -0.344519 0.026840 0.911086 -0.007257 0.779729 -1.070156 1.861654 -1.498760 1.064432 1.071587 -0.044282 0.389985 0.218491 -1.347578 0.855905 0.860454 0.400553 0.389013 0.270563 1.520728 0.692397 0.594223 0.892285 -0.504453 0.830358 0.066309 -1.633685 0.253602 1.849785 0.912308 0.106153 -1.325463 0.214911 0.613654 0.758680 -0.098853 0.694944 -0.818475 0.169387 -0.890099
8300.000000 -0.275130 0.638024 -0.222871 -0.885083 0.086616 -0.451926 0.460495 -0.579419 1.100225 0.501360 0.205398 -0.432003 -0.942320 0.608057 0.120124 0.598741 -0.558843 -0.270022 0.066642 0.982963 -0.198575 0.916218 0.593234 0.127052 -0.241897 0.408593 0.625248 0.075097 -0.062213 0.133875 0.173176 0.717441 -1.565244 1.426344 -0.721496 -0.587369 -0.438665 0.555020 -0.724965 -0.678731 0.660545 0.506012 -0.223030 0.944862 1.861178 -0.819097 0.428261 0.729000 -1.755246 -0.496976 1.377037 1.703231 -0.248229 1.366060 -0.110827 1.511877 -0.395773 -0.524963 0.940834 0.542013 0.608912 0.020717 0.160499 0.655483 0.039418 0.402613 -0.733418 0.581825 -0.120695 -0.478238 0.897552 -0.280711 -0.886649 0.010724 -0.423461 0.485029 0.061822 -1.307637 0.178542 -0.511125 -0.195462 -0.185690 0.582983 -0.915572 -1.010242 -0.723051 1.193023 -0.390624 -1.836277 -1.093623 -0.843817 -0.540364 0.293630 0.316682 1.517612 -0.609479 -0.327452 0.188480 0.911086 0.030776 0.815908 -1.070156 0.459525 0.901561 1.064432 1.071587 -0.114051 0.851800 0.136208 -0.457391 0.833327 0.807200 0.400553 -1.402356 0.269579 1.527422 0.646783 0.585599 0.892285 -0.421475 0.830358 0.124225 -1.633685 0.253602 1.849785 0.912308 0.604577 -0.801103 0.175839 1.924351 0.758680 -0.098853 0.694944 -0.818475 -0.544413 -0.890099
8367.000000 -0.275130 0.638024 -0.222871 -0.885083 0.086616 -0.451926 0.460495 -0.579419 1.100225 0.501360 0.205398 -0.432003 -0.942320 0.608057 0.120124 0.598741 -0.558843 -0.270022 0.066642 0.982963 -0.198575 0.916218 0.593234 0.127052 -0.241897 0.408593 0.625248 0.075097 -0.062213 0.133875 0.173176 0.717441 -1.565244 1.426344 -0.721496 -0.587369 -0.438665 0.555020 -0.724965 -0.678731 0.660545 0.506012 -0.223030 0.944862 1.861178 -0.819097 0.428261 0.729000 -1.755246 -0.496976 1.377037 1.703231 -0.248229 1.366060 -0.110827 1.511877 -0.395773 -0.524963 0.940834 0.542013 0.608912 0.020717 0.160499 0.655483 0.039418 0.402613 -0.733418 0.581825 -0.120695 -0.478238 0.897552 -0.280711 -0.886649 0.010724 -0.423461 0.485029 0.061822 -1.307637 0.178542 -0.511125 -0.195462 -0.185690 0.582983 -0.915572 -1.010242 -0.723051 1.193023 -0.390624 -1.836277 -1.093623 -0.843817 -0.540364 0.293630 0.316682 1.517612 -0.609479 -0.327452 0.188480 0.911086 0.030776 0.815908 -1.070156 0.459525 0.901561 1.064432 1.071587 -0.114051 0.851800 0.136208 -0.457391 0.833327 0.807200 0.400553 -1.402356 0.269579 1.527422 0.646783 0.585599 0.892285 -0.421475 0.830358 0.124225 -1.633685 0.253602 1.849785 0.912308 0.604577 -0.801103 0.175839 1.924351 0.758680 -0.098853 0.694944 -0.818475 -0.544413 -0.890099
8367.000000 -0.275130 0.638024 -0.222871 -0.885083 0.086616 -0.451926 0.460495 -0.579419 1.100225 0.501360 0.205398 -0.432003 -0.942320 0.608057 0.120124 0.598741 -0.558843 -0.270022 0.066642 0.982963 -0.198575 0.916218 0.593234 0.127052 -0.241897 0.408593 0.625248 0.075097 -0.062213 0.133875 0.173176 0.717441 -1.565244 1.426344 -0.721496 -0.587369 -0.438665 0.555020 -0.724965 -0.678731 0.660545 0.506012 -0.223030 0.944862 1.861178 -0.819097 0.428261 0.729000 -1.755246 -0.496976 1.377037 1.703231 -0.248229 1.366060 -0.110827 1.511877 -0.395773 -0.524963 0.940834 0.542013 0.608912 0.020717 0.160499 0.655483 0.039418 0.402613 -0.733418 0.581825 -0.120695 -0.478238 0.897552 -0.280711 -0.886649 0.010724 -0.423461 0.485029 0.061822 -1.307637 0.178542 -0.511125 -0.195462 -0.185690 0.582983 -0.915572 -1.010242 -0.723051 1.193023 -0.390624 -1.836277 -1.093623 -0.843817 -0.540364 0.293630 0.316682 1.517612 -0.609479 -0.327452 0.188480 0.911086 0.030776 0.815908 -1.070156 0.459525 0.901561 1.064432 1.071587 -0.114051 0.851800 0.136208 -0.457391 0.833327 0.807200 0.400553 -1.402356 0.269579 1.527422 0.646783 0.585599 0.892285 -0.421475 0.830358 0.124225 -1.633685 0.253602 1.849785 0.912308 0.604577 -0.801103 0.175839 1.924351 0.758680 -0.098853 0.694944 -0.818475 -0.544413 -0.890099
8300.000000 -0.275130 0.638024 -0.222871 -0.885083 0.086616 -0.451926 0.460495 -0.579419 1.100225 0.501360 0.205398 -0.432003 -0.942320 0.608057 0.120124 0.598741 -0.558843 -0.270022 0.066642 0.982963 -0.198575 0.916218 0.593234 0.127052 -0.241897 0.408593 0.625248 0.075097 -0.062213 0.133875 0.173176 0.717441 -1.565244 1.426344 -0.721496 -0.587369 -0.438665 0.555020 -0.724965 -0.678731 0.660545 0.506012 -0.223030 0.944862 1.861178 -0.819097 0.428261 0.729000 -1.755246 -0.496976 1.377037 1.703231 -0.248229 1.366060 -0.110827 1.511877 -0.395773 -0.524963 0.940834 0.542013 0.608912 0.020717 0.160499 0.655483 0.039418 0.402613 -0.733418 0.581825 -0.120695 -0.478238 0.897552 -0.280711 -0.886649 0.010724 -0.423461 0.485029 0.061822 -1.307637 0.178542 -0.511125 -0.195462 -0.185690 0.582983 -0.915572 -1.010242 -0.723051 1.193023 -0.390624 -1.836277 -1.093623 -0.843817 -0.540364 0.293630 0.316682 1.517612 -0.609479 -0.327452 0.188480 0.911086 0.030776 0.815908 -1.070156 0.459525 0.901561 1.064432 1.071587 -0.114051 0.851800 0.136208 -0.457391 0.833327 0.807200 0.400553 -1.402356 0.269579 1.527422 0.646783 0.585599 0.892285 -0.421475 0.830358 0.124225 -1.633685 0.253602 1.849785 0.912308 0.604577 -0.801103 0.175839 1.924351 0.758680 -0.098853 0.694944 -0.818475 -0.544413 -0.890099
9666.000000 -0.538741 0.733356 -0.500155 0.199909 -0.975653 0.715419 -0.782536 -0.769640 -0.143410 -0.572178 0.415647 -0.537269 -0.249325 0.322735 -0.604750 0.205151 -0.665354 0.404005 0.817116 -0.041706 0.191403 0.071854 -0.375562 -0.064502 -0.676849 0.266448 -0.968457 0.054591 0.746651 -0.583478 -0.671366 -0.792090 -0.850122 -0.171521 0.407818 -0.825774 -0.456102 0.625283 -0.595414 0.400489 -0.946896 0.820233 0.863220 -0.196221 0.142968 -0.741530 -0.991069 0.477614 0.662475 0.826047 -0.564092 -0.146122 -0.102099 0.060346 0.789376 0.221052 -0.673205 0.820919 -0.724357 -0.926555 -0.762559 -0.395724 -0.718645 -0.612680 0.432755 0.689174 -0.438455 0.976654 0.314456 -0.033869 0.377142 0.367561 -0.213636 0.240362 -0.828660 0.929332 0.498832 -0.819729 0.406946 0.161307 -0.993682 0.842854 -0.984814 -0.095781 -0.096800 0.804562 -0.874728 0.229995 0.625481 -0.599086 0.303441 0.862923 0.005191 0.584796 -0.749758 -0.562054 0.273970 -0.188212 -0.585400 -0.411574 0.777919 0.791742 0.955987 -0.435717 0.032104 -0.872673 -0.506386 -0.469064 -0.692402 0.900561 0.692243 -0.686084 0.743415 0.707429 0.218135 -0.353385 0.511991 0.343407 0.876610 0.137472 0.744321 0.180051 0.000395 -0.250488 -0.235153 0.250637 0.187458 -0.961184 -0.937575 0.602058 -0.372758 0.840344 0.393800 -0.416771 -0.595374 -0.574096
9667.000000 -0.538741 0.733356 -0.500155 0.199909 -0.975653 0.715419 -0.782536 -0.769640 -0.143410 -0.572178 0.415647 -0.537269 -0.249325 0.322735 -0.604750 0.205151 -0.665354 0.404005 0.817116 -0.041706 0.191403 0.071854 -0.375562 -0.064502 -0.676849 0.266448 -0.968457 0.054591 0.746651 -0.583478 -0.671366 -0.792090 -0.850122 -0.171521 0.407818 -0.825774 -0.456102 0.625283 -0.595414 0.400489 -0.946896 0.820233 0.863220 -0.196221 0.142968 -0.741530 -0.991069 0.477614 0.662475 0.826047 -0.564092 -0.146122 -0.102099 0.060346 0.789376 0.221052 -0.673205 0.820919 -0.724357 -0.926555 -0.762559 -0.395724 -0.718645 -0.612680 0.432755 0.689174 -0.438455 0.976654 0.314456 -0.033869 0.377142 0.367561 -0.213636 0.240362 -0.828660 0.929332 0.498832 -0.819729 0.406946 0.161307 -0.993682 0.842854 -0.984814 -0.095781 -0.096800 0.804562 -0.874728 0.229995 0.625481 -0.599086 0.303441 0.862923 0.005191 0.584796 -0.749758 -0.562054 0.273970 -0.188212 -0.585400 -0.411574 0.777919 0.791742 0.955987 -0.435717 0.032104 -0.872673 -0.506386 -0.469064 -0.692402 0.900561 0.692243 -0.686084 0.743415 0.707429 0.218135 -0.353385 0.511991 0.343407 0.876610 0.137472 0.744321 0.180051 0.000395 -0.250488 -0.235153 0.250637 0.187458 -0.961184 -0.937575 0.602058 -0.372758 0.840344 0.393800 -0.416771 -0.595374 -0.574096
9666.000000 -0.538741 0.733356 -0.500155 0.199909 -0.975653 0.715419 -0.782536 -0.769640 -0.143410 -0.572178 0.415647 -0.537269 -0.249325 0.322735 -0.604750 0.205151 -0.665354 0.404005 0.817116 -0.041706 0.191403 0.071854 -0.375562 -0.064502 -0.676849 0.266448 -0.968457 0.054591 0.746651 -0.583478 -0.671366 -0.792090 -0.850122 -0.171521 0.407818 -0.825774 -0.456102 0.625283 -0.595414 0.400489 -0.946896 0.820233 0.863220 -0.196221 0.142968 -0.741530 -0.991069 0.477614 0.662475 0.826047 -0.564092 -0.146122 -0.102099 0.060346 0.789376 0.221052 -0.673205 0.820919 -0.724357 -0.926555 -0.762559 -0.395724 -0.718645 -0.612680 0.432755 0.689174 -0.438455 0.976654 0.314456 -0.033869 0.377142 0.367561 -0.213636 0.240362 -0.828660 0.929332 0.498832 -0.819729 0.406946 0.161307 -0.993682 0.842854 -0.984814 -0.095781 -0.096800 0.804562 -0.874728 0.229995 0.625481 -0.599086 0.303441 0.862923 0.005191 0.584796 -0.749758 -0.562054 0.273970 -0.188212 -0.585400 -0.411574 0.777919 0.791742 0.955987 -0.435717 0.032104 -0.872673 -0.506386 -0.469064 -0.692402 0.900561 0.692243 -0.686084 0.743415 0.707429 0.218135 -0.353385 0.511991 0.343407 0.876610 0.137472 0.744321 0.180051 0.000395 -0.250488 -0.235153 0.250637 0.187458 -0.961184 -0.937575 0.602058 -0.372758 0.840344 0.393800 -0.416771 -0.595374 -0.574096
10816.000000 -0.275130 0.934341 -0.222871 0.764114 0.086616 -0.451926 -0.254597 0.210822 1.100225 0.501360 0.109909 0.320796 0.902494 0.608057 0.120124 0.598741 -0.558843 0.682063 -0.389598 0.982963 -0.198575 0.916218 0.588206 -0.685495 -0.131079 0.408593 0.625248 0.075097 -0.911952 -0.475464 -0.174575 0.717441 -0.653755 1.426344 -0.721496 -0.587369 0.185538 0.192807 -0.724965 0.733330 0.660545 0.506012 -0.266811 0.709988 1.861178 0.325071 0.428261 0.463584 0.058348 -0.496976 1.377037 1.703231 0.978108 0.479613 -0.110827 1.511877 -0.395773 -0.524963 -0.608734 0.542013 0.608912 0.367241 0.392687 0.655483 0.910264 -0.413440 -0.733418 0.659105 0.842576 -0.400577 -0.138294 -0.280711 -0.881755 0.010724 -0.423461 0.485029 0.061822 -0.837801 0.178542 -0.511125 -0.195462 0.370844 0.889309 -0.736403 -0.032465 -0.213058 1.193023 -0.269753 -1.836277 -1.093623 -0.843817 0.656503 0.365547 -0.247713 1.517612 -0.774666 -0.327579 0.581768 -0.730283 0.646574 0.815908 -1.070156 0.459525 0.901561 0.712591 1.071587 -0.965228 0.851800 0.136208 -0.457391 0.498650 0.807200 0.400553 -0.525822 0.269579 0.735511 0.671474 0.933636 -0.201735 -0.421475 0.830358 0.124225 -1.633685 0.253602 1.849785 0.912308 0.604577 -0.801103 0.175839 -0.991069 0.758680 -0.266534 0.694944 -0.818475 -0.544413 -0.890099
9534.000000 -0.538741 0.934341 -0.500155 0.199909 -0.975653 -0.357484 -0.782536 -0.769640 -0.143410 -0.572178 0.415647 -0.000141 0.902494 0.322735 -0.073405 0.342500 -0.665354 0.404005 0.817116 -0.041706 0.191403 0.071854 -0.375562 -0.064502 -0.676849 0.876051 -0.968457 0.054591 0.746651 -0.583478 -0.671366 -0.792090 -0.850122 -0.171521 0.407818 -0.825774 -0.456102 0.192807 -0.595414 0.400489 -0.946896 0.820233 0.863220 -0.196221 -0.178111 -0.741530 -0.991069 0.477614 0.662475 0.826047 -0.564092 -0.146122 -0.102099 0.060346 0.789376 0.221052 -0.673205 0.820919 -0.724357 -0.926555 -0.762559 0.367241 -0.718645 -0.612680 0.432755 0.689174 -0.438455 0.095803 0.314456 -0.033869 0.377142 0.367561 -0.213636 0.562322 -0.568626 0.929332 0.222106 -0.819729 0.406946 0.161307 -0.160447 0.842854 -0.984814 -0.095781 -0.096800 0.804562 -0.443438 0.229995 0.625481 -0.599086 0.303441 0.656503 -0.684930 -0.247713 -0.125427 -0.562054 0.273970 -0.188212 0.321137 -0.411574 -0.011091 0.791742 0.955987 -0.435717 0.032104 0.364162 -0.506386 -0.469064 -0.692402 0.900561 0.692243 -0.686084 0.743415 0.707429 0.218135 -0.353385 0.511991 0.343407 0.876610 0.137472 0.744321 0.180051 0.000395 -0.250488 -0.235153 0.250637 0.187458 0.502529 -0.937575 0.602058 0.149103 0.840344 0.393800 -0.918109 -0.595374 -0.574096
8367.000000 -0.275130 0.638024 -0.222871 -0.885083 0.086616 -0.451926 0.460495 -0.579419 1.100225 0.501360 0.205398 -0.432003 -0.942320 0.608057 0.120124 0.598741 -0.558843 -0.270022 0.066642 0.982963 -0.198575 0.916218 0.593234 0.127052 -0.241897 0.408593 0.625248 0.075097 -0.062213 0.133875 0.173176 0.717441 -1.565244 1.426344 -0.721496 -0.587369 -0.438665 0.555020 -0.724965 -0.678731 0.660545 0.506012 -0.223030 0.944862 1.861178 -0.819097 0.428261 0.729000 -1.755246 -0.496976 1.377037 1.703231 -0.248229 1.366060 -0.110827 1.511877 -0.395773 -0.524963 0.940834 0.542013 0.608912 0.020717 0.160499 0.655483 0.039418 0.402613 -0.733418 0.581825 -0.120695 -0.478238 0.897552 -0.280711 -0.886649 0.010724 -0.423461 0.485029 0.061822 -1.307637 0.178542 -0.511125 -0.195462 -0.185690 0.582983 -0.915572 -1.010242 -0.723051 1.193023 -0.390624 -1.836277 -1.093623 -0.843817 -0.540364 0.293630 0.316682 1.517612 -0.609479 -0.327452 0.188480 0.911086 0.030776 0.815908 -1.070156 0.459525 0.901561 1.064432 1.071587 -0.114051 0.851800 0.136208 -0.457391 0.833327 0.807200 0.400553 -1.402356 0.269579 1.527422 0.646783 0.585599 0.892285 -0.421475 0.830358 0.124225 -1.633685 0.253602 1.849785 0.912308 0.604577 -0.801103 0.175839 1.924351 0.758680 -0.098853 0.694944 -0.818475 -0.544413 -0.890099
